Biostat 203B Homework 2
…
Import icustatys.csv.gz as a tibble icustays_tble.

icustays_tble <- read_csv(str_c(mimic_path,"/icu/icustays.csv.gz")) %>%
 print(width = Inf)

# A tibble: 76,540 × 8
   subject_id  hadm_id  stay_id first_careunit          
        <dbl>    <dbl>    <dbl> <chr>                   
 1   17867402 24528534 31793211 Trauma SICU (TSICU)     
 2   14435996 28960964 31983544 Trauma SICU (TSICU)     
 3   17609946 27385897 33183475 Trauma SICU (TSICU)     
 4   18966770 23483021 34131444 Trauma SICU (TSICU)     
 5   12776735 20817525 34547665 Neuro Stepdown          
 6   10215159 24283593 34569476 Trauma SICU (TSICU)     
 7   14489052 26516390 35056286 Trauma SICU (TSICU)     
 8   15914763 28906020 36909804 Trauma SICU (TSICU)     
 9   16256226 20013290 39289362 Neuro Stepdown          
10   19194449 21641999 39387567 Coronary Care Unit (CCU)
   last_careunit            intime              outtime               los
   <chr>                    <dttm>              <dttm>              <dbl>
 1 Trauma SICU (TSICU)      2154-03-03 04:11:00 2154-03-04 18:16:56 1.59 
 2 Trauma SICU (TSICU)      2150-06-19 17:57:00 2150-06-22 18:33:54 3.03 
 3 Trauma SICU (TSICU)      2138-02-05 18:54:00 2138-02-15 12:42:05 9.74 
 4 Trauma SICU (TSICU)      2123-10-25 10:35:00 2123-10-25 18:59:47 0.351
 5 Neuro Stepdown           2200-07-12 00:33:00 2200-07-13 16:44:40 1.67 
 6 Trauma SICU (TSICU)      2124-09-20 15:05:29 2124-09-21 22:06:58 1.29 
 7 Trauma SICU (TSICU)      2118-10-26 10:33:56 2118-10-26 20:28:10 0.413
 8 Trauma SICU (TSICU)      2176-12-14 12:00:00 2176-12-17 11:47:01 2.99 
 9 Neuro Stepdown           2150-12-20 16:09:08 2150-12-21 14:58:40 0.951
10 Coronary Care Unit (CCU) 2123-11-12 02:53:35 2123-11-12 13:52:03 0.457
# … with 76,530 more rows
…
I use the bar plot to show the repetitive number of ICU stays in each subject id.

For each subject_id, let’s only keep the first ICU stay in the tibble icustays_tble. (Hint: slice_min and slice_max may take long. Think alternative ways to achieve the same function.)

icustays_tble <- icustays_tble %>%
  arrange(subject_id, intime) %>%
  distinct(subject_id, .keep_all = TRUE) %>%
print(width = Inf)

# A tibble: 53,150 × 8
   subject_id  hadm_id  stay_id first_careunit                                  
        <dbl>    <dbl>    <dbl> <chr>                                           
 1   10000032 29079034 39553978 Medical Intensive Care Unit (MICU)              
 2   10000980 26913865 39765666 Medical Intensive Care Unit (MICU)              
 3   10001217 24597018 37067082 Surgical Intensive Care Unit (SICU)             
 4   10001725 25563031 31205490 Medical/Surgical Intensive Care Unit (MICU/SICU)
 5   10001884 26184834 37510196 Medical Intensive Care Unit (MICU)              
 6   10002013 23581541 39060235 Cardiac Vascular Intensive Care Unit (CVICU)    
 7   10002155 23822395 33685454 Coronary Care Unit (CCU)                        
 8   10002223 22494570 39638202 Trauma SICU (TSICU)                             
 9   10002348 22725460 32610785 Neuro Intermediate                              
10   10002428 28662225 33987268 Medical Intensive Care Unit (MICU)              
   last_careunit                                    intime             
   <chr>                                            <dttm>             
 1 Medical Intensive Care Unit (MICU)               2180-07-23 14:00:00
 2 Medical Intensive Care Unit (MICU)               2189-06-27 08:42:00
 3 Surgical Intensive Care Unit (SICU)              2157-11-20 19:18:02
 4 Medical/Surgical Intensive Care Unit (MICU/SICU) 2110-04-11 15:52:22
 5 Medical Intensive Care Unit (MICU)               2131-01-11 04:20:05
 6 Cardiac Vascular Intensive Care Unit (CVICU)     2160-05-18 10:00:53
 7 Coronary Care Unit (CCU)                         2129-08-04 12:45:00
 8 Trauma SICU (TSICU)                              2158-01-15 08:01:49
 9 Neuro Intermediate                               2112-11-30 23:24:00
10 Medical Intensive Care Unit (MICU)               2156-04-12 16:24:18
   outtime               los
   <dttm>              <dbl>
 1 2180-07-23 23:50:47 0.410
 2 2189-06-27 20:38:27 0.498
 3 2157-11-21 22:08:00 1.12 
 4 2110-04-12 23:59:56 1.34 
 5 2131-01-20 08:27:30 9.17 
 6 2160-05-19 17:33:33 1.31 
 7 2129-08-10 17:02:38 6.18 
 8 2158-01-16 15:19:24 1.30 
 9 2112-12-10 18:25:13 9.79 
10 2156-04-17 15:57:08 4.98 
# … with 53,140 more rows
…
Import admissions.csv.gz as a tibble admissions_tble.

admissions_tble <- 
  read_csv(str_c(mimic_path,"/core/admissions.csv.gz")) %>%
print(width = Inf)

# A tibble: 523,740 × 15
   subject_id  hadm_id admittime           dischtime           deathtime
        <dbl>    <dbl> <dttm>              <dttm>              <dttm>   
 1   14679932 21038362 2139-09-26 14:16:00 2139-09-28 11:30:00 NA       
 2   15585972 24941086 2123-10-07 23:56:00 2123-10-12 11:22:00 NA       
 3   11989120 21965160 2147-01-14 09:00:00 2147-01-17 14:25:00 NA       
 4   17817079 24709883 2165-12-27 17:33:00 2165-12-31 21:18:00 NA       
 5   15078341 23272159 2122-08-28 08:48:00 2122-08-30 12:32:00 NA       
 6   19124609 20517215 2169-03-14 12:44:00 2169-03-20 19:15:00 NA       
 7   17301855 29732723 2140-06-06 14:23:00 2140-06-08 14:25:00 NA       
 8   17991012 24298836 2181-07-10 20:28:00 2181-07-12 15:49:00 NA       
 9   16865435 23216961 2185-07-19 02:12:00 2185-07-21 11:50:00 NA       
10   13693648 21640725 2111-01-30 23:43:00 2111-02-02 13:03:00 NA       
   admission_type admission_location discharge_location insurance language
   <chr>          <chr>              <chr>              <chr>     <chr>   
 1 ELECTIVE       <NA>               HOME               Other     ENGLISH 
 2 ELECTIVE       <NA>               HOME               Other     ENGLISH 
 3 ELECTIVE       <NA>               HOME               Other     ENGLISH 
 4 ELECTIVE       <NA>               HOME               Other     ENGLISH 
 5 ELECTIVE       <NA>               HOME               Other     ENGLISH 
 6 ELECTIVE       <NA>               HOME               Other     ENGLISH 
 7 ELECTIVE       <NA>               HOME               Other     ENGLISH 
 8 ELECTIVE       <NA>               HOME               Other     ENGLISH 
 9 ELECTIVE       <NA>               HOME               Other     ENGLISH 
10 ELECTIVE       <NA>               HOME               Other     ENGLISH 
   marital_status ethnicity              edregtime edouttime
   <chr>          <chr>                  <dttm>    <dttm>   
 1 SINGLE         UNKNOWN                NA        NA       
 2 <NA>           WHITE                  NA        NA       
 3 <NA>           UNKNOWN                NA        NA       
 4 <NA>           OTHER                  NA        NA       
 5 <NA>           BLACK/AFRICAN AMERICAN NA        NA       
 6 <NA>           UNKNOWN                NA        NA       
 7 <NA>           WHITE                  NA        NA       
 8 <NA>           WHITE                  NA        NA       
 9 <NA>           WHITE                  NA        NA       
10 <NA>           WHITE                  NA        NA       
   hospital_expire_flag
                  <dbl>
 1                    0
 2                    0
 3                    0
 4                    0
 5                    0
 6                    0
 7                    0
 8                    0
 9                    0
10                    0
# … with 523,730 more rows

Solution: I used the ‘read_csv’ command to read the icu file into tibble and used the ‘is_tibble’ command to check if it is a tibble.

Let’s only keep the admissions that have a match in icustays_tble according to subject_id and hadmi_id.

admissions_tble <- admissions_tble %>%
  semi_join(icustays_tble, by = c ("subject_id","hadm_id")) %>%
print(width = Inf)

# A tibble: 53,150 × 15
   subject_id  hadm_id admittime           dischtime          
        <dbl>    <dbl> <dttm>              <dttm>             
 1   10222255 28200985 2120-11-20 20:25:00 2120-11-22 13:00:00
 2   14485852 28712010 2113-10-31 00:23:00 2113-11-04 16:50:00
 3   18709254 23758948 2195-10-12 01:31:00 2195-10-12 13:51:00
 4   16837807 23526268 2151-03-19 06:09:00 2151-03-19 07:20:00
 5   17642680 27734285 2116-05-29 12:48:00 2116-05-30 12:31:00
 6   18230965 21251728 2142-03-12 20:00:00 2142-03-17 15:26:00
 7   17374121 27667114 2115-07-22 07:15:00 2115-07-24 17:50:00
 8   13346506 28533404 2181-11-19 14:32:00 2181-11-22 18:47:00
 9   18030332 24679656 2152-07-22 21:28:00 2152-07-27 16:49:00
10   14328744 29576470 2126-08-20 09:26:00 2126-08-21 11:36:00
   deathtime           admission_type     admission_location    
   <dttm>              <chr>              <chr>                 
 1 NA                  EU OBSERVATION     TRANSFER FROM HOSPITAL
 2 NA                  EW EMER.           EMERGENCY ROOM        
 3 NA                  EU OBSERVATION     EMERGENCY ROOM        
 4 2151-03-19 07:20:00 EU OBSERVATION     EMERGENCY ROOM        
 5 NA                  EU OBSERVATION     WALK-IN/SELF REFERRAL 
 6 NA                  URGENT             PHYSICIAN REFERRAL    
 7 NA                  DIRECT OBSERVATION PHYSICIAN REFERRAL    
 8 NA                  EU OBSERVATION     EMERGENCY ROOM        
 9 NA                  URGENT             TRANSFER FROM HOSPITAL
10 NA                  EU OBSERVATION     EMERGENCY ROOM        
   discharge_location insurance language marital_status ethnicity
   <chr>              <chr>     <chr>    <chr>          <chr>    
 1 <NA>               Other     ENGLISH  MARRIED        WHITE    
 2 <NA>               Other     ENGLISH  SINGLE         WHITE    
 3 <NA>               Medicaid  ENGLISH  WIDOWED        ASIAN    
 4 <NA>               Medicare  ENGLISH  SINGLE         WHITE    
 5 <NA>               Other     ENGLISH  SINGLE         WHITE    
 6 HOME               Other     ENGLISH  MARRIED        WHITE    
 7 <NA>               Other     ENGLISH  MARRIED        WHITE    
 8 <NA>               Other     ENGLISH  MARRIED        WHITE    
 9 HOME               Other     ENGLISH  MARRIED        UNKNOWN  
10 <NA>               Other     ENGLISH  MARRIED        WHITE    
   edregtime           edouttime           hospital_expire_flag
   <dttm>              <dttm>                             <dbl>
 1 2120-11-20 18:07:00 2120-11-21 20:25:00                    0
 2 2113-10-30 19:48:00 2113-10-31 05:10:00                    0
 3 2195-10-11 18:40:00 2195-10-12 02:47:00                    0
 4 2151-03-19 02:55:00 2151-03-19 06:59:00                    1
 5 2116-05-29 10:05:00 2116-05-30 01:17:00                    0
 6 NA                  NA                                     0
 7 NA                  NA                                     0
 8 2181-11-19 10:51:00 2181-11-19 15:12:00                    0
 9 NA                  NA                                     0
10 2126-08-19 23:01:00 2126-08-20 10:14:00                    0
# … with 53,140 more rows
…
Summarize the following variables by graphics.

admission year

admissions_tble <- admissions_tble %>%
  mutate("admityear" = year(as_datetime(admittime)),
         "admitmonth" = month(as_datetime(admittime)),
         "admitmonthday" = mday(as_datetime(admittime)),
         "admitweekday" = wday(as_datetime(admittime)),
         "admithour" = hour(as_datetime(admittime)),
         "admitmin" = minute(as_datetime(admittime)),
         )
admissions_tble

# A tibble: 53,150 × 21
   subject…¹ hadm_id admittime           dischtime           deathtime          
       <dbl>   <dbl> <dttm>              <dttm>              <dttm>             
 1  10222255  2.82e7 2120-11-20 20:25:00 2120-11-22 13:00:00 NA                 
 2  14485852  2.87e7 2113-10-31 00:23:00 2113-11-04 16:50:00 NA                 
 3  18709254  2.38e7 2195-10-12 01:31:00 2195-10-12 13:51:00 NA                 
 4  16837807  2.35e7 2151-03-19 06:09:00 2151-03-19 07:20:00 2151-03-19 07:20:00
 5  17642680  2.77e7 2116-05-29 12:48:00 2116-05-30 12:31:00 NA                 
 6  18230965  2.13e7 2142-03-12 20:00:00 2142-03-17 15:26:00 NA                 
 7  17374121  2.77e7 2115-07-22 07:15:00 2115-07-24 17:50:00 NA                 
 8  13346506  2.85e7 2181-11-19 14:32:00 2181-11-22 18:47:00 NA                 
 9  18030332  2.47e7 2152-07-22 21:28:00 2152-07-27 16:49:00 NA                 
10  14328744  2.96e7 2126-08-20 09:26:00 2126-08-21 11:36:00 NA                 
# … with 53,140 more rows, 16 more variables: admission_type <chr>,
#   admission_location <chr>, discharge_location <chr>, insurance <chr>,
#   language <chr>, marital_status <chr>, ethnicity <chr>, edregtime <dttm>,
#   edouttime <dttm>, hospital_expire_flag <dbl>, admityear <dbl>,
#   admitmonth <dbl>, admitmonthday <int>, admitweekday <dbl>, admithour <int>,
#   admitmin <int>, and abbreviated variable name ¹​subject_id
…
Solution There are a more numbers of admission at minute 0, 15, 30, and 45. I think it happends because the recorder are rounding other minutes into theses minutes. For example: record 14 as 15.

-   length of hospital stay (anything unusual?)

admissions_tble <- admissions_tble %>%
  mutate( "lengthstaydays" = ((dischtime - admittime) / 1400) 
        )
admissions_tble

# A tibble: 53,150 × 22
   subject…¹ hadm_id admittime           dischtime           deathtime          
       <dbl>   <dbl> <dttm>              <dttm>              <dttm>             
 1  10222255  2.82e7 2120-11-20 20:25:00 2120-11-22 13:00:00 NA                 
 2  14485852  2.87e7 2113-10-31 00:23:00 2113-11-04 16:50:00 NA                 
 3  18709254  2.38e7 2195-10-12 01:31:00 2195-10-12 13:51:00 NA                 
 4  16837807  2.35e7 2151-03-19 06:09:00 2151-03-19 07:20:00 2151-03-19 07:20:00
 5  17642680  2.77e7 2116-05-29 12:48:00 2116-05-30 12:31:00 NA                 
 6  18230965  2.13e7 2142-03-12 20:00:00 2142-03-17 15:26:00 NA                 
 7  17374121  2.77e7 2115-07-22 07:15:00 2115-07-24 17:50:00 NA                 
 8  13346506  2.85e7 2181-11-19 14:32:00 2181-11-22 18:47:00 NA                 
 9  18030332  2.47e7 2152-07-22 21:28:00 2152-07-27 16:49:00 NA                 
10  14328744  2.96e7 2126-08-20 09:26:00 2126-08-21 11:36:00 NA                 
# … with 53,140 more rows, 17 more variables: admission_type <chr>,
#   admission_location <chr>, discharge_location <chr>, insurance <chr>,
#   language <chr>, marital_status <chr>, ethnicity <chr>, edregtime <dttm>,
#   edouttime <dttm>, hospital_expire_flag <dbl>, admityear <dbl>,
#   admitmonth <dbl>, admitmonthday <int>, admitweekday <dbl>, admithour <int>,
#   admitmin <int>, lengthstaydays <drtn>, and abbreviated variable name
#   ¹​subject_id
…
Import patients.csv.gz (https://mimic.mit.edu/docs/iv/modules/hosp/patients/) as a tibble patients_tble and only keep the patients who have a match in icustays_tble (according to subject_id).

patients_tble <- read_csv(str_c(mimic_path,"/core/patients.csv.gz"))
          
patients_tble <- patients_tble %>%
  arrange(subject_id) %>%
  semi_join(icustays_tble, by = c ("subject_id"))  %>%
  print(width = Inf)

# A tibble: 53,150 × 6
   subject_id gender anchor_age anchor_year anchor_year_group dod       
        <dbl> <chr>       <dbl>       <dbl> <chr>             <date>    
 1   10000032 F              52        2180 2014 - 2016       NA        
 2   10000980 F              73        2186 2008 - 2010       NA        
 3   10001217 F              55        2157 2011 - 2013       NA        
 4   10001725 F              46        2110 2011 - 2013       NA        
 5   10001884 F              68        2122 2008 - 2010       2131-01-20
 6   10002013 F              53        2156 2008 - 2010       NA        
 7   10002155 F              80        2128 2008 - 2010       2131-03-10
 8   10002223 M              21        2158 2008 - 2010       NA        
 9   10002348 F              77        2112 2017 - 2019       NA        
10   10002428 F              80        2155 2011 - 2013       NA        
# … with 53,140 more rows
…
[1] " 122103667"

Solution: Based on the result from the wc command. There are 122103667 rows in the labevent file.

We are interested in the lab measurements of creatinine (50912), potassium (50971), sodium (50983), chloride (50902), bicarbonate (50882), hematocrit (51221), white blood cell count (51301), and glucose (50931). Retrieve a subset of labevents.csv.gz only containing these items for the patients in icustays_tble as a tibble labevents_tble.

Hint: labevents.csv.gz is a data file too big to be read in by the read_csv function in its default setting. Utilize the col_select option in the read_csv function to reduce the memory burden. It took my computer 5-10 minutes to ingest this file. If your computer really has trouble importing labevents.csv.gz, you can import from the reduced data file labevents_filtered_itemid.csv.gz.

d_labitems_tble <- read_csv(str_c(mimic_path,"/hosp/d_labitems.csv.gz"))
itemid_want <- c(50912, 50971, 50983, 50902, 50882, 51221, 51301, 50931)
d_labitems_tble

# A tibble: 1,630 × 5
   itemid label                     fluid            category   loinc_code
    <dbl> <chr>                     <chr>            <chr>      <chr>     
 1  51905 <NA>                      Other Body Fluid Chemistry  <NA>      
 2  51532 11-Deoxycorticosterone    Blood            Chemistry  <NA>      
 3  51957 17-Hydroxycorticosteroids Urine            Chemistry  <NA>      
 4  51958 17-Ketosteroids, Urine    Urine            Chemistry  <NA>      
 5  52068 24 Hr                     Blood            Hematology <NA>      
 6  51066 24 hr Calcium             Urine            Chemistry  <NA>      
 7  51067 24 hr Creatinine          Urine            Chemistry  <NA>      
 8  51068 24 hr Protein             Urine            Chemistry  <NA>      
 9  50853 25-OH Vitamin D           Blood            Chemistry  <NA>      
10  51533 3t                        Blood            Chemistry  <NA>      
# … with 1,620 more rows

#filter the needed column in the codebook
d_labitems_tble <- filter(d_labitems_tble, itemid %in% itemid_want)

labevents_tble <- labevent %>%
  arrange(subject_id) %>%
  semi_join(icustays_tble, by = c ("subject_id"))  %>%
  
  semi_join(d_labitems_tble, by = c ("itemid"))  %>%
  print(width = Inf)

# A tibble: 13,926,853 × 4
   subject_id itemid charttime           valuenum
        <dbl>  <dbl> <dttm>                 <dbl>
 1   10000032  50882 2180-03-23 11:51:00     27  
 2   10000032  50902 2180-03-23 11:51:00    101  
 3   10000032  50912 2180-03-23 11:51:00      0.4
 4   10000032  51301 2180-03-23 11:51:00      3  
 5   10000032  50971 2180-03-23 11:51:00      3.7
 6   10000032  50983 2180-03-23 11:51:00    136  
 7   10000032  51221 2180-03-23 11:51:00     45.4
 8   10000032  51221 2180-05-06 22:25:00     42.6
 9   10000032  51301 2180-05-06 22:25:00      5  
10   10000032  50882 2180-05-06 22:25:00     27  
# … with 13,926,843 more rows
…
